%YAML 1.1
%TAG !u! tag:unity3d.com,2011:
--- !u!114 &11400000
MonoBehaviour:
  m_ObjectHideFlags: 0
  m_PrefabParentObject: {fileID: 0}
  m_PrefabInternal: {fileID: 0}
  m_GameObject: {fileID: 0}
  m_Enabled: 1
  m_EditorHideFlags: 0
  m_Script: {fileID: 11500000, guid: 5db210355e6742647b16be7b02c2aa96, type: 3}
  m_Name: DemoJailData
  m_EditorClassIdentifier: 
  tileName: DemoJail
  material: {fileID: 2100000, guid: cf98656cbe3583841879a17a3c68e3a9, type: 2}
  sprite: {fileID: 21300000, guid: c50f7ce2b734ca54da2b70634466b3d4, type: 3}
  _visitAreaOffset: {x: 0, y: 0, z: 0}
