%YAML 1.1
%TAG !u! tag:unity3d.com,2011:
--- !u!114 &11400000
MonoBehaviour:
  m_ObjectHideFlags: 0
  m_PrefabParentObject: {fileID: 0}
  m_PrefabInternal: {fileID: 0}
  m_GameObject: {fileID: 0}
  m_Enabled: 1
  m_EditorHideFlags: 0
  m_Script: {fileID: 11500000, guid: 8acbc73d2d7964c40819ed6814b07c6b, type: 3}
  m_Name: DemoStationData
  m_EditorClassIdentifier: 
  tileName: DemoStation
  material: {fileID: 2100000, guid: f8bdeedaf00458b4189e8f7c96c241db, type: 2}
  sprite: {fileID: 21300000, guid: 52f1e6f7cde64814f8481f20d7902e91, type: 3}
  cost: 100
